<?xml version="1.0" encoding="UTF-8" standalone="no"?>
<!-- Created with Inkscape (http://www.inkscape.org/) -->

<svg
   version="1.1"
   id="svg1"
   width="281.76001"
   height="78.310776"
   viewBox="0 0 281.76001 78.310776"
   sodipodi:docname="LogoThePita.svg"
   inkscape:version="1.3 (0e150ed6c4, 2023-07-21)"
   xmlns:inkscape="http://www.inkscape.org/namespaces/inkscape"
   xmlns:sodipodi="http://sodipodi.sourceforge.net/DTD/sodipodi-0.dtd"
   xmlns="http://www.w3.org/2000/svg"
   xmlns:svg="http://www.w3.org/2000/svg">
  <defs
     id="defs1" />
  <sodipodi:namedview
     id="namedview1"
     pagecolor="#ffffff"
     bordercolor="#000000"
     borderopacity="0.25"
     inkscape:showpageshadow="2"
     inkscape:pageopacity="0.0"
     inkscape:pagecheckerboard="0"
     inkscape:deskcolor="#d1d1d1"
     showgrid="false"
     showguides="true"
     inkscape:zoom="3.8755367"
     inkscape:cx="140.62569"
     inkscape:cy="48.509411"
     inkscape:window-width="1876"
     inkscape:window-height="1036"
     inkscape:window-x="20"
     inkscape:window-y="20"
     inkscape:window-maximized="1"
     inkscape:current-layer="g1">
    <inkscape:page
       x="0"
       y="0"
       inkscape:label="1"
       id="page1"
       width="281.76001"
       height="78.310776"
       margin="0"
       bleed="0" />
    <sodipodi:guide
       position="105.56403,39.380798"
       orientation="0,-1"
       id="guide14"
       inkscape:locked="false" />
  </sodipodi:namedview>
  <g
     id="g1"
     inkscape:groupmode="layer"
     inkscape:label="1"
     transform="translate(-14.677381,-13.449866)">
    <g
       id="g13">
      <path
         id="path8"
         d="m 562.566,759.727 c 16.461,-4.137 19.192,-25.043 9.047,-37.516 0,0 -46.164,-83.387 -107.808,-87.117 -60.11,-3.641 -259.164,196.551 -165.266,194.008 57.504,-1.559 107.695,-10.907 148.434,-22.262 -17.274,-12.797 -29.012,-37.895 -29.012,-66.762 0,-41.855 24.68,-75.785 55.121,-75.785 30.441,0 55.121,33.93 55.121,75.785 0,15.254 -3.277,29.457 -8.922,41.348 27.977,-12.082 43.285,-21.699 43.285,-21.699"
         style="fill:#00adef;fill-opacity:1;fill-rule:nonzero;stroke:none"
         transform="matrix(0.13333333,0,0,-0.13333333,0,124)" />
      <path
         id="path9"
         d="M 529.152,602.871 C 481.203,460.996 681.613,380.273 675.391,451.898 c -5.832,67.067 -38.856,165.938 -53.895,205.684 -17.176,45.391 -78.937,-15.059 -92.344,-54.711"
         style="fill:#fddd04;fill-opacity:1;fill-rule:nonzero;stroke:none"
         transform="matrix(0.13333333,0,0,-0.13333333,0,124)" />
      <path
         id="path10"
         d="M 204.148,712.934 C 149.496,605.313 123.582,452.25 110.734,353.668 94.6289,230.055 381.43,390.703 386.555,515.277 390.867,620.082 239.348,782.242 204.148,712.934"
         style="fill:#ec008c;fill-opacity:1;fill-rule:nonzero;stroke:none"
         transform="matrix(0.13333333,0,0,-0.13333333,0,124)" />
      <path
         id="path11"
         d="m 257.945,257.211 c 8.696,44.273 163.743,198.766 220.313,183.922 C 513.949,431.766 577.883,414 585.07,385.797 601.273,322.191 246.406,198.438 257.945,257.211"
         style="fill:#99d420;fill-opacity:1;fill-rule:nonzero;stroke:none"
         transform="matrix(0.13333333,0,0,-0.13333333,0,124)" />
    </g>
    <g
       id="g14"
       transform="translate(0,4.5908894)">
      <path
         id="path12"
         d="m 1456.49,416.816 v -43.261 c 0,-24.352 11.45,-36.567 34.35,-36.641 5.45,-0.098 11.62,2.039 18.5,6.41 6.88,4.371 10.64,11.551 11.28,21.528 v 51.964 h -64.13"
         style="fill:#0b8ed8;fill-opacity:1;fill-rule:evenodd;stroke:none"
         transform="matrix(0.13333333,0,0,-0.13333333,0,124)" />
      <path
         id="path13"
         d="m 1520.62,416.816 v 46.969 c 6.37,-12.203 15.5,-21.574 27.37,-28.113 11.87,-6.535 23.97,-9.836 36.3,-9.899 17.3,0.305 33.89,6.657 49.79,19.047 15.89,12.387 28.96,28.953 39.2,49.688 10.25,20.734 15.54,43.777 15.9,69.129 -0.31,29.949 -5.03,55.039 -14.15,75.285 -9.12,20.242 -20.76,35.5 -34.91,45.769 -14.16,10.27 -28.95,15.418 -44.38,15.434 -13.26,0.164 -25.57,-2.566 -36.93,-8.18 -11.37,-5.625 -21.96,-15.109 -31.78,-28.461 0.03,11.93 -2.89,20.938 -8.76,27.024 -5.87,6.09 -14.86,9.144 -26.97,9.16 -11.87,-0.016 -20.65,-3.07 -26.34,-9.16 -5.68,-6.086 -8.5,-15.094 -8.47,-27.024 V 416.813 Z m 553.34,93.688 c 0.4,7.289 4.41,12.637 12.02,16.027 7.62,3.399 16.43,5.078 26.45,5.039 9.62,-0.031 18.32,-1.679 26.11,-4.922 7.79,-3.242 11.91,-7.859 12.37,-13.855 -0.49,-8.023 -5.01,-14.074 -13.57,-18.148 -8.56,-4.075 -18.23,-6.114 -29.03,-6.125 -8.85,0 -16.69,1.832 -23.53,5.496 -6.84,3.664 -10.45,9.156 -10.82,16.488 z m -29.78,174.051 c -7.4,-3.008 -13.2,-6.957 -17.4,-11.852 -4.2,-4.894 -6.34,-10.562 -6.41,-17.004 0.32,-11.422 3.79,-19.152 10.42,-23.191 6.62,-4.031 14.44,-5.922 23.47,-5.664 8.14,0.246 16.25,1.242 24.34,2.976 8.08,1.739 16.76,2.727 26.05,2.977 13.55,-0.121 26.06,-4 37.56,-11.621 11.49,-7.625 17.59,-18.254 18.32,-31.887 V 566.84 c -8.4,5.992 -18.28,10.613 -29.66,13.859 -11.37,3.242 -23.32,4.883 -35.84,4.922 -19.61,-0.277 -36.33,-4.508 -50.17,-12.691 -13.83,-8.18 -24.41,-18.653 -31.73,-31.414 -7.33,-12.766 -11.02,-26.157 -11.08,-40.172 0.15,-19.723 7.29,-36.844 21.41,-51.352 14.12,-14.519 34.31,-22.133 60.58,-22.847 12.98,-0.04 25.94,2.668 38.87,8.128 12.93,5.461 24.86,13.891 35.79,25.309 v -8.707 c 1.31,-9.242 5.32,-15.711 12.02,-19.41 6.7,-3.692 12.31,-5.465 16.83,-5.32 11.31,0.32 20.07,3.91 26.28,10.761 6.21,6.852 9.37,15.02 9.45,24.508 v 136.945 c -0.35,23.266 -6.06,42.082 -17.12,56.442 -11.05,14.359 -25.35,24.828 -42.87,31.402 -17.52,6.57 -36.15,9.813 -55.9,9.719 -10.59,0 -21.24,-1.031 -31.94,-3.094 -10.71,-2.062 -21.13,-5.152 -31.27,-9.273 z M 1833.7,662.57 c 0.19,-10.105 3.25,-17.261 9.16,-21.472 5.91,-4.207 13.55,-6.668 22.9,-7.383 V 523.789 c -0.73,-30.5 4.52,-54.238 15.75,-71.226 11.23,-16.981 32.85,-25.61 64.87,-25.879 12.4,0.031 21.83,2.949 28.28,8.761 6.45,5.809 9.7,14.34 9.73,25.594 -0.03,11.453 -3.28,20.035 -9.73,25.762 -6.45,5.73 -15.88,8.59 -28.28,8.59 -4.21,-0.02 -6.9,2.308 -8.08,6.984 -1.17,4.676 -1.69,11.813 -1.54,21.414 v 109.008 h 20.61 c 12.11,-0.211 21.1,1.812 26.97,6.07 5.87,4.258 8.79,12 8.76,23.246 -0.01,11.66 -3.08,19.602 -9.22,23.817 -6.13,4.218 -15.28,6.203 -27.43,5.953 h -19.69 v 17.863 c 0,11.469 -2.98,20.137 -8.93,25.996 -5.96,5.856 -14.89,8.793 -26.8,8.813 -11.69,-0.02 -20.49,-2.957 -26.39,-8.813 -5.91,-5.859 -8.87,-14.527 -8.88,-25.996 v -17.863 c -9.55,-0.965 -17.24,-3.617 -23.07,-7.957 -5.83,-4.34 -8.83,-11.461 -8.99,-21.356 z m -114.68,98.934 c 0.3,-11.719 4.29,-21.379 11.97,-28.969 7.68,-7.597 17.28,-11.527 28.8,-11.797 11.94,0.27 21.73,4.2 29.37,11.797 7.64,7.59 11.59,17.25 11.86,28.969 -0.27,11.719 -4.22,21.379 -11.86,28.969 -7.64,7.597 -17.43,11.527 -29.37,11.793 -11.52,-0.266 -21.12,-4.196 -28.8,-11.793 -7.68,-7.59 -11.67,-17.25 -11.97,-28.969 z m 6.41,-295.43 c 0.03,-12.109 3.07,-21.097 9.11,-26.965 6.04,-5.867 14.91,-8.789 26.62,-8.757 11.91,-0.032 20.84,2.89 26.8,8.757 5.95,5.868 8.93,14.856 8.93,26.965 v 191.914 c -0.05,11.891 -3.16,20.746 -9.33,26.567 -6.18,5.82 -15.13,8.722 -26.86,8.703 -11.49,0.019 -20.23,-2.883 -26.22,-8.703 -5.99,-5.821 -9.01,-14.676 -9.05,-26.567 z m -149.39,28.856 c -16.41,0.754 -28.47,8.062 -36.18,21.929 -7.71,13.864 -11.53,29.762 -11.45,47.692 -0.03,11.105 1.65,21.976 5.02,32.621 3.37,10.644 8.57,19.484 15.61,26.516 7.03,7.031 16.03,10.679 27,10.941 10.02,-0.301 18.02,-4.176 24.01,-11.621 5.98,-7.442 10.28,-16.641 12.91,-27.598 2.62,-10.957 3.9,-21.855 3.85,-32.691 0.05,-10.93 -1.23,-21.539 -3.85,-31.824 -2.63,-10.286 -6.93,-18.79 -12.91,-25.512 -5.99,-6.727 -13.99,-10.207 -24.01,-10.453 z m -309.6,100.308 c 0.53,14.239 5.3,25.039 14.31,32.41 9.01,7.36 19.05,11.067 30.11,11.102 10.5,0.023 19.74,-3.562 27.72,-10.762 7.97,-7.191 12.17,-18.109 12.59,-32.75 z m 43.51,105.809 c -25.55,-0.391 -47.13,-6.992 -64.75,-19.801 -17.63,-12.808 -31,-29.484 -40.13,-50.027 -9.12,-20.539 -13.7,-42.61 -13.75,-66.211 0.05,-25.516 4.93,-48.781 14.62,-69.805 9.69,-21.023 23.86,-37.844 42.51,-50.469 18.65,-12.625 41.44,-19.101 68.37,-19.421 21.13,0.058 40.02,3.832 56.68,11.332 16.66,7.503 30.75,18.378 42.26,32.636 2.93,3.172 4.97,6.453 6.12,9.852 1.16,3.398 1.71,7.133 1.67,11.219 -0.18,10.476 -2.7,18.148 -7.56,23.015 -4.87,4.867 -11.05,7.274 -18.56,7.215 -7.9,-0.352 -15.3,-2.805 -22.18,-7.363 -6.89,-4.555 -14.39,-9.117 -22.5,-13.672 -8.11,-4.555 -17.95,-7.012 -29.52,-7.363 -6.94,-0.079 -15.09,1.652 -24.43,5.207 -9.34,3.55 -17.58,9.39 -24.73,17.527 -7.15,8.129 -10.92,19.027 -11.3,32.691 h 104.89 c 17.8,-0.738 31.68,0.731 41.63,4.403 9.95,3.676 15.01,13.961 15.17,30.859 -0.16,35.988 -10.03,64.555 -29.6,85.707 -19.57,21.156 -47.88,31.977 -84.91,32.469 z M 951.52,465.621 c 0,-23.437 11.449,-35.195 34.351,-35.269 12.109,0.007 21.099,2.964 26.969,8.871 5.87,5.91 8.79,14.707 8.76,26.398 v 127.785 c 0.36,13.524 4.1,23.696 11.22,30.52 7.12,6.82 15.44,10.238 24.97,10.246 8.62,0.016 16.33,-3.344 23.13,-10.074 6.79,-6.739 10.38,-16.969 10.76,-30.692 V 465.621 c 0.04,-11.691 3.05,-20.488 9.05,-26.398 5.99,-5.907 14.73,-8.864 26.22,-8.871 23.82,0.074 35.73,11.832 35.73,35.269 V 606.23 c -0.3,22.321 -4.38,40.133 -12.23,53.438 -7.86,13.309 -17.67,22.875 -29.44,28.707 -11.77,5.824 -23.69,8.676 -35.74,8.547 -13.68,-0.227 -25.72,-3.438 -36.13,-9.617 -10.41,-6.188 -19.59,-13.969 -27.54,-23.36 v 100.309 c 0.03,11.949 -2.89,21.027 -8.76,27.25 -5.87,6.223 -14.86,9.351 -26.969,9.391 -11.453,-0.04 -20.039,-3.168 -25.766,-9.391 -5.726,-6.223 -8.585,-15.301 -8.585,-27.25 z M 765.316,662.57 c 0.192,-10.105 3.243,-17.261 9.161,-21.472 5.918,-4.207 13.55,-6.668 22.902,-7.383 V 523.789 c -0.734,-30.5 4.516,-54.238 15.746,-71.226 11.23,-16.981 32.852,-25.61 64.867,-25.879 12.406,0.031 21.836,2.949 28.285,8.761 6.45,5.809 9.696,14.34 9.735,25.594 -0.039,11.453 -3.285,20.035 -9.735,25.762 -6.449,5.73 -15.879,8.59 -28.285,8.59 -4.207,-0.02 -6.898,2.308 -8.07,6.984 -1.176,4.676 -1.692,11.813 -1.547,21.414 v 109.008 h 20.613 c 12.11,-0.211 21.094,1.812 26.965,6.07 5.867,4.258 8.789,12 8.758,23.246 -0.008,11.66 -3.078,19.602 -9.215,23.817 -6.137,4.218 -15.277,6.203 -27.426,5.953 h -19.695 v 17.863 c 0,11.469 -2.977,20.137 -8.934,25.996 -5.953,5.856 -14.886,8.793 -26.793,8.813 -11.691,-0.02 -20.488,-2.957 -26.394,-8.813 -5.91,-5.859 -8.867,-14.527 -8.875,-25.996 v -17.863 c -9.555,-0.965 -17.242,-3.617 -23.074,-7.957 -5.828,-4.34 -8.828,-11.461 -8.989,-21.356"
         style="fill:#0b8ed8;fill-opacity:1;fill-rule:evenodd;stroke:none"
         transform="matrix(0.13333333,0,0,-0.13333333,0,124)" />
    </g>
  </g>
</svg>
